{
  "files": {
    "main.css": "/static/css/main.30223bf7.chunk.css",
    "main.js": "/static/js/main.06cbd937.chunk.js",
    "main.js.map": "/static/js/main.06cbd937.chunk.js.map",
    "runtime~main.js": "/static/js/runtime~main.a8a9905a.js",
    "runtime~main.js.map": "/static/js/runtime~main.a8a9905a.js.map",
    "static/js/2.363475f5.chunk.js": "/static/js/2.363475f5.chunk.js",
    "static/js/2.363475f5.chunk.js.map": "/static/js/2.363475f5.chunk.js.map",
    "index.html": "/index.html",
    "precache-manifest.2d0cd661faee858f498a28316a420baf.js": "/precache-manifest.2d0cd661faee858f498a28316a420baf.js",
    "service-worker.js": "/service-worker.js",
    "static/css/main.30223bf7.chunk.css.map": "/static/css/main.30223bf7.chunk.css.map",
    "static/media/App.css": "/static/media/bg-web.b6c26469.svg",
    "static/media/custard-apple.jpg": "/static/media/custard-apple.5f31217e.jpg",
    "static/media/dragon-04.jpg": "/static/media/dragon-04.c1a562fa.jpg",
    "static/media/logo.svg": "/static/media/logo.b4d8a87e.svg",
    "static/media/welcome_logo.png": "/static/media/welcome_logo.6811cd26.png"
  }
}